{    
    "operatorCollection": [
        {
            "Key": "EQ",
            "Text": "equal to"
        },
        {
            "Key": "Contains",
            "Text": "contains"
        },
        {
            "Key": "StartsWith",
            "Text": "starts with"
        },
        {
            "Key": "EndsWith",
            "Text": "ends with"
        },
        {
            "Key": "NE",
            "Text": "not equal to"
        },
        {
            "Key": "NotContains",
            "Text": "does not contain"
        },
        {
            "Key": "NotStartsWith",
            "Text": "does not start with"
        },
        {
            "Key": "NotEndsWith",
            "Text": "does not end with"
        }
    ]
}