{
    "Level1": [
        {
            "Key": "XX",
            "Text": "No Product"
        },
        {
            "Key": "AS",
            "Text": "Air Separators"
        },
        {
            "Key": "BF",
            "Text": "Bulk Material Flow Controls"
        },
        {
            "Key": "CO",
            "Text": "(OEM) Consumables"
        },
        {
            "Key": "CP",
            "Text": "(OEM) Components"
        },
        {
            "Key": "CS",
            "Text": "Sifters"
        },
        {
            "Key": "DM",
            "Text": "Dry Mills"
        },
        {
            "Key": "FM",
            "Text": "Filter Mech."
        },
        {
            "Key": "GV",
            "Text": "Grav./Vol. Feeder"
        },
        {
            "Key": "HA",
            "Text": "Bulk Material Handling"
        },
        {
            "Key": "LQ",
            "Text": "LOGiQ"
        },
        {
            "Key": "MA",
            "Text": "Material Analyzers"
        },
        {
            "Key": "MC",
            "Text": "Mech. Conveyors"
        },
        {
            "Key": "MF",
            "Text": "Mass Flowmeter"
        },
        {
            "Key": "MX",
            "Text": "Mixer"
        },
        {
            "Key": "PC",
            "Text": "Pneum. Conveyors"
        },
        {
            "Key": "QI",
            "Text": "CONiQ"
        },
        {
            "Key": "SC",
            "Text": "Screens"
        },
        {
            "Key": "SD",
            "Text": "Static/Dyn. Scales"
        },
        {
            "Key": "SE",
            "Text": "Sensors"
        },
        {
            "Key": "TP",
            "Text": "Thermal Processing Equipment"
        },
        {
            "Key": "WM",
            "Text": "Wet Mills"
        },
        {
            "Key": "ZS",
            "Text": "Services"
        }
    ],
    "Level2": {
        "AS": [
            {
                "Key": "KEM",
                "Text": "KEMUTEC"
            },
            {
                "Key": "RAY",
                "Text": "Raymond"
            },
            {
                "Key": "OTH",
                "Text": "Other"
            }
        ],
        "BF": [
            {
                "Key": "AHZ",
                "Text": "ST2HV"
            },
            {
                "Key": "AMZ",
                "Text": "ST2MV"
            },
            {
                "Key": "BAD",
                "Text": "Discharge Aids - Vibrators"
            },
            {
                "Key": "BVD",
                "Text": "Vavles - Diverters"
            },
            {
                "Key": "PDV",
                "Text": "ProDV"
            },
            {
                "Key": "BVA",
                "Text": "Valves - Airlocks"
            },
            {
                "Key": "STO",
                "Text": "Stock"
            },
            {
                "Key": "MUC",
                "Text": "MUCON"
            },
            {
                "Key": "ALG",
                "Text": "SL2HG"
            },
            {
                "Key": "AMG",
                "Text": "SL2MG"
            },
            {
                "Key": "ALH",
                "Text": "SL1HG"
            },
            {
                "Key": "ALV",
                "Text": "SL1HV"
            },
            {
                "Key": "ALM",
                "Text": "SL1MG"
            },
            {
                "Key": "AHV",
                "Text": "SL3HV"
            },
            {
                "Key": "ALZ",
                "Text": "SL2HV"
            },
            {
                "Key": "AVH",
                "Text": "SL4HV"
            },
            {
                "Key": "BTH",
                "Text": "Heavy Chutes"
            },
            {
                "Key": "BTC",
                "Text": "Heavy Control System"
            },
            {
                "Key": "BTS",
                "Text": "Heavy Hydraulic System"
            },
            {
                "Key": "BTM",
                "Text": "Medium Chutes"
            },
            {
                "Key": "BMM",
                "Text": "Medium Control System"
            },
            {
                "Key": "BMG",
                "Text": "Medium Guillotine Gates"
            },
            {
                "Key": "BMH",
                "Text": "Medium Hydraulic System"
            },
            {
                "Key": "BBU",
                "Text": "Valves - Butterfly"
            },
            {
                "Key": "BOR",
                "Text": "Valves - Orifice"
            },
            {
                "Key": "BOV",
                "Text": "Valves - Other"
            },
            {
                "Key": "FMA",
                "Text": "FloMaster"
            },
            {
                "Key": "OTH",
                "Text": "Other"
            },
            {
                "Key": "BKG",
                "Text": "Valves - Knife Gate "
            },
            {
                "Key": "BTL",
                "Text": "Chutes"
            },
            {
                "Key": "BCS",
                "Text": "Valves - Clams Shell"
            },
            {
                "Key": "BDI",
                "Text": "Valves - Diverter"
            }
        ],
        "CO": [
            {
                "Key": "OTH",
                "Text": "Other"
            },
            {
                "Key": "SCX",
                "Text": "Screenex"
            },
            {
                "Key": "YFM",
                "Text": "Filtration Media"
            },
            {
                "Key": "YGM",
                "Text": "Milling Media"
            },
            {
                "Key": "YFE",
                "Text": "Feeding Media"
            }
        ],
        "CP": [
            {
                "Key": "XOM",
                "Text": "Mechanical Accessories"
            },
            {
                "Key": "XOE",
                "Text": "Electrical Accessories"
            },
            {
                "Key": "OTH",
                "Text": "Other"
            },
            {
                "Key": "XEA",
                "Text": "Exciters"
            }
        ],
        "CS": [
            {
                "Key": "KEM",
                "Text": "KEMUTEC"
            },
            {
                "Key": "OTH",
                "Text": "Other"
            }
        ],
        "DM": [
            {
                "Key": "RAY",
                "Text": "Raymond"
            },
            {
                "Key": "KEM",
                "Text": "KEMUTEC"
            },
            {
                "Key": "OTH",
                "Text": "Other"
            }
        ],
        "FM": [
            {
                "Key": "PJT",
                "Text": "Pulse Jet - Top Load"
            },
            {
                "Key": "PJB",
                "Text": "Pulse Jet - Bottom Load"
            },
            {
                "Key": "PJH",
                "Text": "Pulse Jet - Baghouse"
            },
            {
                "Key": "PJC",
                "Text": "Pulse Jet - Catridge"
            },
            {
                "Key": "CYC",
                "Text": "Cyclone"
            },
            {
                "Key": "MPO",
                "Text": "MCF Powersaver"
            },
            {
                "Key": "RAI",
                "Text": "Reverse Air"
            },
            {
                "Key": "FSY",
                "Text": "System"
            },
            {
                "Key": "OTH",
                "Text": "Other"
            }
        ],
        "GV": [
            {
                "Key": "MUF",
                "Text": "MultiFlex"
            },
            {
                "Key": "IBU",
                "Text": "IntraBulk"
            },
            {
                "Key": "VLU",
                "Text": "Loading & Unloading"
            },
            {
                "Key": "STO",
                "Text": "Stock"
            },
            {
                "Key": "MTD",
                "Text": "MULTIDOS"
            },
            {
                "Key": "ARA",
                "Text": "AccuRate"
            },
            {
                "Key": "MTR",
                "Text": "MechaTron"
            },
            {
                "Key": "MGR",
                "Text": "MultiGrav"
            },
            {
                "Key": "MCE",
                "Text": "MULTICELL"
            },
            {
                "Key": "SPL",
                "Text": "SimPlex"
            },
            {
                "Key": "WVI",
                "Text": "Vibratory"
            },
            {
                "Key": "VTM",
                "Text": "Loading Train"
            },
            {
                "Key": "VLK",
                "Text": "Loading Truck"
            },
            {
                "Key": "OTH",
                "Text": "Other"
            },
            {
                "Key": "FFI",
                "Text": "FulFiller"
            },
            {
                "Key": "PFL",
                "Text": "ProFlex"
            },
            {
                "Key": "PFE",
                "Text": "PureFeed"
            }
        ],
        "HA": [
            {
                "Key": "BBD",
                "Text": "Storage - Loading & Unloading"
            },
            {
                "Key": "SMA",
                "Text": "SacMaster"
            },
            {
                "Key": "BSB",
                "Text": "Storage - Bins, Hoppers & Silos"
            },
            {
                "Key": "SMA",
                "Text": "SacMaster"
            },
            {
                "Key": "OTH",
                "Text": "Other"
            }
        ],
        "LQ": [
            {
                "Key": "LOA",
                "Text": "Automation"
            },
            {
                "Key": "LYA",
                "Text": "Yard"
            },
            {
                "Key": "LRA",
                "Text": "Rail"
            },
            {
                "Key": "LFT",
                "Text": "SW Legal-for-Trade"
            },
            {
                "Key": "OTH",
                "Text": "Other"
            }
        ],
        "MA": [
            {
                "Key": "LIB",
                "Text": "LIBS"
            },
            {
                "Key": "OTH",
                "Text": "Other"
            }
        ],
        "MC": [
            {
                "Key": "MVM",
                "Text": "MoveMaster"
            },
            {
                "Key": "RED",
                "Text": "Redler"
            },
            {
                "Key": "MCS",
                "Text": "Mech. Conv. System"
            },
            {
                "Key": "OTH",
                "Text": "Other"
            }
        ],
        "MF": [
            {
                "Key": "MCO",
                "Text": "MULTICOR"
            },
            {
                "Key": "MBE",
                "Text": "MultiBelt"
            },
            {
                "Key": "EMI",
                "Text": "Impact"
            },
            {
                "Key": "EMI",
                "Text": "Measuring Chute"
            },
            {
                "Key": "OTH",
                "Text": "Other"
            }
        ],
        "MX": [
            {
                "Key": "KEK",
                "Text": "KEK-GARDNER"
            },
            {
                "Key": "OTH",
                "Text": "Other"
            }
        ],
        "PC": [
            {
                "Key": "PLC",
                "Text": "Line Components"
            },
            {
                "Key": "PPS",
                "Text": "ProStream"
            },
            {
                "Key": "PCS",
                "Text": "Pneum. Conv. System"
            },
            {
                "Key": "SPI",
                "Text": "SandPiper"
            },
            {
                "Key": "PPH",
                "Text": "ProPhase"
            },
            {
                "Key": "RSC",
                "Text": "Rotoscrew"
            },
            {
                "Key": "MVM",
                "Text": "MoveMaster"
            },
            {
                "Key": "PVE",
                "Text": "Vessels"
            },
            {
                "Key": "PBL",
                "Text": "Blowers"
            },
            {
                "Key": "PHO",
                "Text": "Hoods"
            },
            {
                "Key": "OTH",
                "Text": "Other"
            },
            {
                "Key": "PFA",
                "Text": "Fans"
            }
        ],
        "QI": [
            {
                "Key": "QMO",
                "Text": "Monitor"
            },
            {
                "Key": "QCO",
                "Text": "Control"
            },
            {
                "Key": "QRE",
                "Text": "Remote"
            },
            {
                "Key": "QCH",
                "Text": "Check"
            },
            {
                "Key": "QES",
                "Text": "ESP"
            },
            {
                "Key": "QRA",
                "Text": "Remote Assist"
            },
            {
                "Key": "QCL",
                "Text": "Cloud"
            },
            {
                "Key": "QVE",
                "Text": "ESP - Rappers"
            },
            {
                "Key": "QVD",
                "Text": "ESP - Voltage"
            },
            {
                "Key": "QIT",
                "Text": "Integration Tools"
            },
            {
                "Key": "OTH",
                "Text": "Other"
            }
        ],
        "SC": [
            {
                "Key": "SCN",
                "Text": "Non-Vibratory"
            },
            {
                "Key": "LCL",
                "Text": "LinaClass"
            },
            {
                "Key": "ELL",
                "Text": "Elliptical"
            },
            {
                "Key": "FFL",
                "Text": "FlipFlop"
            },
            {
                "Key": "RCL",
                "Text": "RotaClass"
            },
            {
                "Key": "OTH",
                "Text": "Other"
            }
        ],
        "SD": [
            {
                "Key": "MRT",
                "Text": "MULTIRAIL / MultiTrain"
            },
            {
                "Key": "LTR",
                "Text": "Truck"
            },
            {
                "Key": "LPL",
                "Text": "Platform"
            },
            {
                "Key": "LBI",
                "Text": "Bin"
            },
            {
                "Key": "LBA",
                "Text": "Batch"
            },
            {
                "Key": "LCR",
                "Text": "Crane"
            },
            {
                "Key": "OTH",
                "Text": "Other"
            },
            {
                "Key": "SER",
                "Text": "Series"
            },
            {
                "Key": "COU",
                "Text": "Counterbalance"
            }
        ],
        "SE": [
            {
                "Key": "QLS",
                "Text": "Level Switch"
            },
            {
                "Key": "SIQ",
                "Text": "SensiQ"
            },
            {
                "Key": "RSS",
                "Text": "Speed Sensors"
            },
            {
                "Key": "RLC",
                "Text": "Load Cells"
            },
            {
                "Key": "RAA",
                "Text": "Accoustic"
            },
            {
                "Key": "OTH",
                "Text": "Other"
            }
        ],
        "TP": [
            {
                "Key": "FLA",
                "Text": "Flash"
            },
            {
                "Key": "ROT",
                "Text": "Rotary"
            },
            {
                "Key": "OTH",
                "Text": "Other"
            }
        ],
        "WM": [
            {
                "Key": "OTH",
                "Text": "Other"
            },
            {
                "Key": "RAY",
                "Text": "Raymond"
            }
        ],
        "ZS": [
            {
                "Key": "OTH",
                "Text": "Other"
            },
            {
                "Key": "ZOG",
                "Text": "Services"
            }
        ]
    },
    "Level3": {
        "AHZ": [
            {
                "Key": "0",
                "Text": "Stock Pile, 2X Loading chutes, Heavy, Volumentric"
            }
        ],
        "ALG": [
            {
                "Key": "SGH",
                "Text": "Silo, 2X Loading chutes, Heavy, Gravimetric"
            }
        ],
        "ALH": [
            {
                "Key": "SHG",
                "Text": "Silo, 1X Loading chutes, Heavy, Gravimetric"
            }
        ],
        "ALV": [
            {
                "Key": "SHV",
                "Text": "Silo, 1X Loading chutes, Heavy, Volumentric"
            }
        ],
        "ALM": [
            {
                "Key": "SMG",
                "Text": "Silo, 1X Loading chutes, Medium, Gravimetric"
            }
        ],
        "AHV": [
            {
                "Key": "SVD",
                "Text": "Silo, 3X Loading chutes, Heavy, Volumentric"
            }
        ],
        "AMZ": [
            {
                "Key": "0",
                "Text": "Stock Pile, 2X Loading chutes, Medium, Volumentric"
            }
        ],
        "AMG": [
            {
                "Key": "SGM",
                "Text": "Silo, 2X Loading chutes, Medium, Gravimetric"
            }
        ],
        "ALZ": [
            {
                "Key": "SVH",
                "Text": "Silo, 2X Loading chutes, Heavy, Volumentric"
            }
        ],
        "ARA": [
            {
                "Key": "GRV",
                "Text": "SeriesFeeder GRAV"
            },
            {
                "Key": "VOL",
                "Text": "SeriesFeeder VOL"
            }
        ],
        "AVH": [
            {
                "Key": "SVV",
                "Text": "Silo, 4X Loading chutes, Heavy, Volumentric"
            }
        ],
        "BAD": [
            {
                "Key": "ATU",
                "Text": "ATU (Turbine)"
            },
            {
                "Key": "PPA",
                "Text": "Promoflow"
            },
            {
                "Key": "VAR",
                "Text": "Various"
            }
        ],
        "BBD": [
            {
                "Key": "BBH",
                "Text": "Bagdump Station"
            },
            {
                "Key": "BBI",
                "Text": "Hygenic Bagdump Station"
            }
        ],
        "BBU": [
            {
                "Key": "VAR",
                "Text": "Various"
            }
        ],
        "BCS": [
            {
                "Key": "VRT",
                "Text": "Various(Train Loader)"
            }
        ],
        "BDI": [
            {
                "Key": "VRT",
                "Text": "Various(Train Loader)"
            }
        ],
        "BKG": [
            {
                "Key": "VKG",
                "Text": "Various (Knife Gate)"
            },
            {
                "Key": "VRF",
                "Text": "Various(Feeder)"
            },
            {
                "Key": "VRT",
                "Text": "Various(Train Loader)"
            }
        ],
        "BMG": [
            {
                "Key": "TSM",
                "Text": "TLO subassemblies - Medium"
            }
        ],
        "BMM": [
            {
                "Key": "TSM",
                "Text": "TLO subassemblies - Medium"
            }
        ],
        "BMH": [
            {
                "Key": "TSM",
                "Text": "TLO subassemblies - Medium"
            }
        ],
        "BOR": [
            {
                "Key": "VAR",
                "Text": "Various"
            }
        ],
        "BTC": [
            {
                "Key": "TSH",
                "Text": "TLO subassemblies - Heavy"
            }
        ],
        "BOV": [
            {
                "Key": "VAR",
                "Text": "Various"
            }
        ],
        "BSB": [
            {
                "Key": "VAR",
                "Text": "Various"
            }
        ],
        "BTH": [
            {
                "Key": "TSH",
                "Text": "TLO subassemblies - Heavy"
            }
        ],
        "BTM": [
            {
                "Key": "TSM",
                "Text": "TLO subassemblies - Medium"
            }
        ],
        "BTL": [
            {
                "Key": "VRS",
                "Text": "Various(Screen)"
            },
            {
                "Key": "VRT",
                "Text": "Various(Train Loader)"
            }
        ],
        "BTS": [
            {
                "Key": "TSH",
                "Text": "TLO subassemblies - Heavy"
            }
        ],
        "BVA": [
            {
                "Key": "BCV",
                "Text": "CV"
            },
            {
                "Key": "BFR",
                "Text": "FR"
            },
            {
                "Key": "BFS",
                "Text": "FS"
            },
            {
                "Key": "BHD",
                "Text": "HD"
            },
            {
                "Key": "BHE",
                "Text": "HE"
            },
            {
                "Key": "BMD",
                "Text": "MD"
            },
            {
                "Key": "BRV",
                "Text": "RV"
            },
            {
                "Key": "BWG",
                "Text": "WG"
            },
            {
                "Key": "CHD",
                "Text": "CHD"
            },
            {
                "Key": "CMD",
                "Text": "CMD"
            },
            {
                "Key": "FTA",
                "Text": "FTA"
            },
            {
                "Key": "HCA",
                "Text": "HCA"
            },
            {
                "Key": "MTA",
                "Text": "MTA"
            },
            {
                "Key": "OBV",
                "Text": "OBRV"
            },
            {
                "Key": "PPH",
                "Text": "HP (ALV)"
            },
            {
                "Key": "RAM",
                "Text": "RAM"
            },
            {
                "Key": "SEA",
                "Text": "SEA"
            },
            {
                "Key": "VAR",
                "Text": "Various"
            }
        ],
        "BVD": [
            {
                "Key": "BAV",
                "Text": "AD"
            },
            {
                "Key": "BBS",
                "Text": "Butterfly Scale"
            },
            {
                "Key": "BSD",
                "Text": "SD"
            },
            {
                "Key": "BWY",
                "Text": "2-Way Y/3-Way Y/2-Way A"
            },
            {
                "Key": "BXV",
                "Text": "PV/BV"
            },
            {
                "Key": "BYV",
                "Text": "YV"
            },
            {
                "Key": "P30",
                "Text": "PST 30"
            },
            {
                "Key": "P45",
                "Text": "PT 45"
            },
            {
                "Key": "VAR",
                "Text": "Various"
            }
        ],
        "COU": [
            {
                "Key": "VAR",
                "Text": "Various"
            }
        ],
        "CYC": [
            {
                "Key": "FCH",
                "Text": "H (Cyclone)"
            },
            {
                "Key": "FCT",
                "Text": "CT"
            },
            {
                "Key": "FHE",
                "Text": "HE "
            },
            {
                "Key": "HCT",
                "Text": "HCT "
            },
            {
                "Key": "HER",
                "Text": "HECR"
            },
            {
                "Key": "HMS",
                "Text": "HMS"
            }
        ],
        "ELL": [
            {
                "Key": "SED",
                "Text": "SED VZ (Elliptical VZ)"
            }
        ],
        "EMI": [
            {
                "Key": "EMB",
                "Text": "MULTISTREAM B (impact plate operation)"
            },
            {
                "Key": "EMG",
                "Text": "MULTISTREAM G (chute operation)"
            }
        ],
        "FFI": [
            {
                "Key": "VFC",
                "Text": "C  (Fulfiller)"
            }
        ],
        "FFL": [
            {
                "Key": "SFS",
                "Text": "SFS DF (SingleDeck, FlipFlop)"
            },
            {
                "Key": "SFX",
                "Text": "SFX DF (DoubleDeck, FlipFlop)"
            }
        ],
        "FLA": [
            {
                "Key": "CAL",
                "Text": "Calciner System (Flash)"
            },
            {
                "Key": "COO",
                "Text": "Cooler System (Flash)"
            },
            {
                "Key": "DRY",
                "Text": "Dryer System (Flash)"
            }
        ],
        "FMA": [
            {
                "Key": "VAR",
                "Text": "Various"
            }
        ],
        "FSY": [
            {
                "Key": "VAR",
                "Text": "Various"
            }
        ],
        "IBU": [
            {
                "Key": "BRU",
                "Text": "BRU"
            },
            {
                "Key": "ECB",
                "Text": "ECB (EcoBin)"
            },
            {
                "Key": "ECD",
                "Text": "ECD (EcoDock)"
            },
            {
                "Key": "MDK",
                "Text": "MDK (MultiDock)"
            },
            {
                "Key": "MTB",
                "Text": "MTB (MultiBin)"
            }
        ],
        "KEK": [
            {
                "Key": "MCA",
                "Text": "Double Cone"
            },
            {
                "Key": "MPE",
                "Text": "Plough PE"
            },
            {
                "Key": "MRE",
                "Text": "Ribbon HE"
            },
            {
                "Key": "MRH",
                "Text": "Ribbon H"
            },
            {
                "Key": "MRL",
                "Text": "Ribbon L"
            },
            {
                "Key": "PTH",
                "Text": "Plough OTH"
            },
            {
                "Key": "RTH",
                "Text": "Ribbon OTH"
            }
        ],
        "KEM": [
            {
                "Key": "SCA",
                "Text": "Air Classifier"
            },
            {
                "Key": "LAB",
                "Text": "Centrifugal Lab"
            },
            {
                "Key": "SIK",
                "Text": "Centrifugal K"
            },
            {
                "Key": "SMI",
                "Text": "Centrifugal Mini"
            },
            {
                "Key": "GCA",
                "Text": "Cone "
            },
            {
                "Key": "GKA",
                "Text": "Kibbler"
            },
            {
                "Key": "GUA",
                "Text": "Universal"
            }
        ],
        "LBA": [
            {
                "Key": "VAR",
                "Text": "Various"
            }
        ],
        "LBI": [
            {
                "Key": "VAR",
                "Text": "Various"
            }
        ],
        "LCL": [
            {
                "Key": "SDV",
                "Text": "SDV VM (SingleDeck,InvMuSlo, Dir.Force)"
            },
            {
                "Key": "SDW",
                "Text": "SDW DF (SingleDeck,InvMuSlo, Dir. Force)"
            },
            {
                "Key": "SLD",
                "Text": "SLD DF (DoubleDeck,Multi-Slo, Dir.Force)"
            },
            {
                "Key": "SLF",
                "Text": "SLF VM (SingleDeck,Flat, Dir.Force)"
            },
            {
                "Key": "SLG",
                "Text": "SLG DF (SingleDeck,Flat, Dir.Force)"
            },
            {
                "Key": "SLH",
                "Text": "SLH DF (SingleDeck, Dir. Force)"
            },
            {
                "Key": "SLH",
                "Text": "SLH DF (SingleDeck,Flat-Hot, Dir.Force)"
            },
            {
                "Key": "SLK",
                "Text": "SLK DF (DoubleDeck,Flat, Dir.Force)"
            },
            {
                "Key": "SLM",
                "Text": "SLM VM (SingleDeck,Multi-Slo, Dir.Force)"
            },
            {
                "Key": "SLO",
                "Text": "SLO DF (SingleDeck, Dir. Force)"
            },
            {
                "Key": "SLR",
                "Text": "SLR DF (Grizzly, Dir.Force)"
            },
            {
                "Key": "SLT",
                "Text": "SLT DF (TripleDeck,Flat, Dir.Force)"
            },
            {
                "Key": "SLV",
                "Text": "SLV VM (SingleDeck,FlatUpFilt,Dir.Force)"
            }
        ],
        "LCR": [
            {
                "Key": "VAR",
                "Text": "Various"
            }
        ],
        "LFT": [
            {
                "Key": "LSD",
                "Text": "DISOVIEW"
            },
            {
                "Key": "LSV",
                "Text": "DISOSAVE"
            }
        ],
        "LIB": [
            {
                "Key": "ASC",
                "Text": "Coal"
            }
        ],
        "LOA": [
            {
                "Key": "LAA",
                "Text": "Systems"
            }
        ],
        "LPL": [
            {
                "Key": "LSC",
                "Text": "DVC "
            },
            {
                "Key": "LSS",
                "Text": "DVS"
            }
        ],
        "LRA": [
            {
                "Key": "LRD",
                "Text": "DISOWARE Terra"
            }
        ],
        "LTR": [
            {
                "Key": "DFT",
                "Text": "DFT"
            }
        ],
        "LYA": [
            {
                "Key": "LCL",
                "Text": "SW 2.0"
            },
            {
                "Key": "LMA",
                "Text": "DISOWARE Atlas"
            },
            {
                "Key": "LMS",
                "Text": "DISOWARE S"
            }
        ],
        "MBE": [
            {
                "Key": "EED",
                "Text": "BED (multiple weighing idler)"
            },
            {
                "Key": "EEM",
                "Text": "BEM (single weighing idler modular)"
            },
            {
                "Key": "EEP",
                "Text": "BEP (single weighing idler)"
            },
            {
                "Key": "EMC",
                "Text": "BMC (multiple weighing idler)"
            },
            {
                "Key": "EMP",
                "Text": "BMP (multiple weighing idler)"
            }
        ],
        "MCE": [
            {
                "Key": "PPL",
                "Text": "LP"
            },
            {
                "Key": "VAF",
                "Text": "AF (IDMS)"
            },
            {
                "Key": "VHP",
                "Text": "HP (RotoFeed)"
            }
        ],
        "MCS": [
            {
                "Key": "MCS",
                "Text": "Mech. Conv. System"
            }
        ],
        "MCO": [
            {
                "Key": "ECH",
                "Text": "H 450 - 1250"
            },
            {
                "Key": "ECK",
                "Text": "K"
            },
            {
                "Key": "ECR",
                "Text": "S 450 - 1250"
            },
            {
                "Key": "ECS",
                "Text": "S 40 - 260"
            }
        ],
        "MGR": [
            {
                "Key": "MFS",
                "Text": "MFS (Multiple Feeder Station)"
            }
        ],
        "MPO": [
            {
                "Key": "MCF",
                "Text": "MCF "
            },
            {
                "Key": "MEX",
                "Text": "MCF CE/ATEX "
            }
        ],
        "MRT": [
            {
                "Key": "DAS",
                "Text": "LegalWeight"
            },
            {
                "Key": "DSB",
                "Text": "MultiBridge (Dynamic)"
            },
            {
                "Key": "DSC",
                "Text": "TrainLoadOut"
            },
            {
                "Key": "DSD",
                "Text": "CheckWeight"
            },
            {
                "Key": "DSE",
                "Text": "SpeedWeight"
            },
            {
                "Key": "DSF",
                "Text": "WheelScan"
            },
            {
                "Key": "LTM",
                "Text": "MultiBridge (Static)"
            },
            {
                "Key": "LWB",
                "Text": "BogieLoad"
            },
            {
                "Key": "LWC",
                "Text": "CornerLoad"
            },
            {
                "Key": "LWW",
                "Text": "WheelLoad"
            },
            {
                "Key": "QMT",
                "Text": "IDentify"
            }
        ],
        "MTD": [
            {
                "Key": "DEA",
                "Text": "DEA"
            },
            {
                "Key": "DMC",
                "Text": "DMC (ATEX 1D/3D Weighbelt)"
            },
            {
                "Key": "DMO",
                "Text": "DMO (Weighbelt)"
            },
            {
                "Key": "VDC",
                "Text": "VDP-C (apron WF medium size compact)"
            },
            {
                "Key": "VDP",
                "Text": "VDP-R2 (apron WF medium to large size)"
            },
            {
                "Key": "WFC",
                "Text": "C (MTD, belt WF medium size/range)"
            },
            {
                "Key": "WFE",
                "Text": "E (belt WF medium size/range)"
            },
            {
                "Key": "WFH",
                "Text": "H (MTD, belt WF large size/high range)"
            },
            {
                "Key": "WFL",
                "Text": "L (belt WF small size stainless steel)"
            },
            {
                "Key": "WWF",
                "Text": "F (belt WF small size stainl steel food)"
            }
        ],
        "MTR": [
            {
                "Key": "LQF",
                "Text": "LQ (Liquid)"
            },
            {
                "Key": "MIN",
                "Text": "MIN (Micro Feeder)"
            },
            {
                "Key": "MTV",
                "Text": "V (Vibro)"
            },
            {
                "Key": "WCF",
                "Text": "CF (Coni-Flex)"
            },
            {
                "Key": "WCS",
                "Text": "CS (Coni-Steel)"
            }
        ],
        "MUC": [
            {
                "Key": "IRI",
                "Text": "Iris"
            },
            {
                "Key": "OHB",
                "Text": "Oyster (Other)"
            },
            {
                "Key": "OHC",
                "Text": "Oyster (Hygenic)"
            },
            {
                "Key": "PNE",
                "Text": "Disc"
            },
            {
                "Key": "RGV",
                "Text": "Slide"
            },
            {
                "Key": "STD",
                "Text": "Standard"
            }
        ],
        "MUF": [
            {
                "Key": "BHP",
                "Text": "HP (RotaScrew)"
            },
            {
                "Key": "WXX",
                "Text": "MultiFlex A, S, P, B, BD, D, DD "
            }
        ],
        "MVM": [
            {
                "Key": "CAF",
                "Text": "CAF (Alternative Fuel Conveyor)"
            },
            {
                "Key": "CBE",
                "Text": "B,BE (Belt Conveyors and Elevators)"
            },
            {
                "Key": "CSM",
                "Text": "S (Screw Conveyors)"
            },
            {
                "Key": "CTX",
                "Text": "TT,TU (Tedo Conveyors)"
            }
        ],
        "OTH": [
            {
                "Key": "VAR",
                "Text": "Various"
            }
        ],
        "PBL": [
            {
                "Key": "VAR",
                "Text": "Various"
            }
        ],
        "PCS": [
            {
                "Key": "PCS",
                "Text": "Pneum. Conv. System"
            }
        ],
        "PDV": [
            {
                "Key": "BBY",
                "Text": "Bypass (Diverter)"
            },
            {
                "Key": "BDI",
                "Text": "Divert (Diverter)"
            },
            {
                "Key": "BFI",
                "Text": "Fill (Diverter)"
            },
            {
                "Key": "DOM",
                "Text": "Dome Valve"
            }
        ],
        "PFA": [
            {
                "Key": "VAR",
                "Text": "Various"
            }
        ],
        "PFE": [
            {
                "Key": "WAI",
                "Text": "AI "
            },
            {
                "Key": "WAP",
                "Text": "AP"
            },
            {
                "Key": "WDP",
                "Text": "DP (Disk)"
            }
        ],
        "PFL": [
            {
                "Key": "VPF",
                "Text": "V (Vibratory)"
            },
            {
                "Key": "WFD",
                "Text": "C (Compound)"
            },
            {
                "Key": "WFF",
                "Text": "F (Food)"
            }
        ],
        "PHO": [
            {
                "Key": "VAR",
                "Text": "Various"
            }
        ],
        "PJB": [
            {
                "Key": "AVS",
                "Text": "AVS/AVSC "
            },
            {
                "Key": "LVS",
                "Text": "LVS/LVSC"
            }
        ],
        "PJC": [
            {
                "Key": "CSR",
                "Text": "CSER "
            },
            {
                "Key": "HSR",
                "Text": "HSER "
            },
            {
                "Key": "M2F",
                "Text": "M2F"
            },
            {
                "Key": "MSS",
                "Text": "SpaceSaver - MSS"
            },
            {
                "Key": "VCF",
                "Text": "VCF "
            }
        ],
        "PJH": [
            {
                "Key": "CEX",
                "Text": "CSCA ATEX "
            },
            {
                "Key": "CSC",
                "Text": "CSC ATEX"
            },
            {
                "Key": "FPV",
                "Text": "CSV ATEX"
            },
            {
                "Key": "FPW",
                "Text": "CTCA ATEX "
            },
            {
                "Key": "NSX",
                "Text": "NS/NSA ATEX"
            },
            {
                "Key": "NTX",
                "Text": "NT/NTA ATEX"
            }
        ],
        "PJT": [
            {
                "Key": "AV2",
                "Text": "AV2/AV4"
            },
            {
                "Key": "FLS",
                "Text": "LST/LSTC "
            },
            {
                "Key": "HRT",
                "Text": "HRT"
            },
            {
                "Key": "RPT",
                "Text": "RPT"
            },
            {
                "Key": "RTX",
                "Text": "RT/RTC "
            },
            {
                "Key": "STX",
                "Text": "ST/STC "
            }
        ],
        "PLC": [
            {
                "Key": "PCC",
                "Text": "Couplings"
            },
            {
                "Key": "PCE",
                "Text": "Elbows, Laterals, Wyes and Tees"
            },
            {
                "Key": "PCN",
                "Text": "No-Ledge Couplings"
            },
            {
                "Key": "PCT",
                "Text": "Tube and Pipe"
            },
            {
                "Key": "VAR",
                "Text": "Various"
            }
        ],
        "PPH": [
            {
                "Key": "PPC",
                "Text": "Cast Ash"
            },
            {
                "Key": "PPD",
                "Text": "D"
            },
            {
                "Key": "PPT",
                "Text": "TD"
            },
            {
                "Key": "STD",
                "Text": "Standard"
            },
            {
                "Key": "VAR",
                "Text": "Various"
            }
        ],
        "PPS": [
            {
                "Key": "PCI",
                "Text": "PCI (Injection)"
            },
            {
                "Key": "PPL",
                "Text": "LP"
            },
            {
                "Key": "WHP",
                "Text": "HP (PStream)"
            }
        ],
        "PVE": [
            {
                "Key": "VAR",
                "Text": "Various"
            }
        ],
        "QCH": [
            {
                "Key": "QSC",
                "Text": "Screen"
            }
        ],
        "QCL": [
            {
                "Key": "VAR",
                "Text": "Various"
            }
        ],
        "QCO": [
            {
                "Key": "EFI",
                "Text": "E-Finity"
            },
            {
                "Key": "LIP",
                "Text": "PCS7 / CFC"
            },
            {
                "Key": "QCA",
                "Text": "DISOPLAN"
            },
            {
                "Key": "QCB",
                "Text": "EasyServe"
            },
            {
                "Key": "QCC",
                "Text": "CP3"
            },
            {
                "Key": "QCD",
                "Text": "DISOCONT"
            },
            {
                "Key": "QCE",
                "Text": "DISOCONT Master"
            },
            {
                "Key": "QCG",
                "Text": "DG2000"
            },
            {
                "Key": "QCI",
                "Text": "INTECONT Tersus"
            },
            {
                "Key": "QCO",
                "Text": "Operator Panel - VMO"
            },
            {
                "Key": "QCP",
                "Text": "CPE"
            },
            {
                "Key": "QCS",
                "Text": "INTECONT Satus"
            },
            {
                "Key": "QCT",
                "Text": "DISOCONT Tersus"
            },
            {
                "Key": "QCV",
                "Text": "Vibro Feeder Controller"
            },
            {
                "Key": "QCW",
                "Text": "PWM "
            },
            {
                "Key": "QCX",
                "Text": "Continuous weighing and feeding"
            },
            {
                "Key": "QCY",
                "Text": "Discontinuous weighing and feeding"
            },
            {
                "Key": "QDB",
                "Text": "DISOBOX Plus"
            },
            {
                "Key": "QDO",
                "Text": "DISOMAT Opus"
            },
            {
                "Key": "QDP",
                "Text": "DISOMAT Parvus"
            },
            {
                "Key": "QDS",
                "Text": "DISOMAT Satus"
            },
            {
                "Key": "QDT",
                "Text": "DISOMAT Tersus"
            },
            {
                "Key": "QDV",
                "Text": "VAG"
            },
            {
                "Key": "QPE",
                "Text": "EDIP"
            },
            {
                "Key": "QPS",
                "Text": "PHASiQ"
            },
            {
                "Key": "QSS",
                "Text": "STREAMiQ"
            },
            {
                "Key": "VAR",
                "Text": "Various"
            }
        ],
        "QES": [
            {
                "Key": "QVM",
                "Text": "ModuPower MPX"
            },
            {
                "Key": "QVT",
                "Text": "TR Sets"
            },
            {
                "Key": "VAR",
                "Text": "Various"
            }
        ],
        "QIT": [
            {
                "Key": "VAR",
                "Text": "Various"
            }
        ],
        "QLS": [
            {
                "Key": "QSA",
                "Text": "Rotalog"
            }
        ],
        "QMO": [
            {
                "Key": "CDP",
                "Text": "Screen CDP"
            },
            {
                "Key": "IOT",
                "Text": "IoT (Edge Device)"
            },
            {
                "Key": "QMA",
                "Text": "Screen View"
            },
            {
                "Key": "QSE",
                "Text": "Exciter (Screen)"
            },
            {
                "Key": "QSO",
                "Text": "Motion (Screen)"
            }
        ],
        "QRA": [
            {
                "Key": "VAR",
                "Text": "Various"
            }
        ],
        "QRE": [
            {
                "Key": "QGP",
                "Text": "PROXiQ"
            }
        ],
        "QVD": [
            {
                "Key": "VAR",
                "Text": "Various"
            }
        ],
        "QVE": [
            {
                "Key": "VAR",
                "Text": "Various"
            }
        ],
        "RAA": [
            {
                "Key": "VAR",
                "Text": "Various"
            }
        ],
        "RAI": [
            {
                "Key": "MPH",
                "Text": "PowerHouse - MPH"
            }
        ],
        "RAY": [
            {
                "Key": "SCI",
                "Text": "DCC (Instream Double Cone Classifier)"
            },
            {
                "Key": "SCJ",
                "Text": "Jet-stream Classifier"
            },
            {
                "Key": "SCM",
                "Text": "MAS (Mechanical Air Separator)"
            },
            {
                "Key": "SCW",
                "Text": "WC (Instream Whizzer Classifier)"
            },
            {
                "Key": "STC",
                "Text": "TC (Instream Turbine Classifier)"
            },
            {
                "Key": "VAR",
                "Text": "Various"
            },
            {
                "Key": "GAV",
                "Text": "AVRM (Advanced Vertical Roller Mills)"
            },
            {
                "Key": "GBM",
                "Text": "BM (Bowl Mills)"
            },
            {
                "Key": "GCM",
                "Text": "CM (Cage Mills)"
            },
            {
                "Key": "GFG",
                "Text": "FGRM-Kit (Fine Grinding Retrofit Kit)"
            },
            {
                "Key": "GHJ",
                "Text": "HJL-Kit (Hydr. Journal Loading Kit)"
            },
            {
                "Key": "GHT",
                "Text": "HTPM (Hi Temp Planetary Mills)"
            },
            {
                "Key": "GIM",
                "Text": "IM (Imp Mills)"
            },
            {
                "Key": "GPM",
                "Text": "PM-Kit (Planetary Mill Retrofit Kit)"
            },
            {
                "Key": "GRM",
                "Text": "RM (Roller Mills)"
            },
            {
                "Key": "HPM",
                "Text": "HP (Mills)"
            },
            {
                "Key": "RVM",
                "Text": "RVM (Raymond Vertical Mills)"
            },
            {
                "Key": "SMM",
                "Text": "SM (Mills)"
            },
            {
                "Key": "WBM",
                "Text": "WBM (Wet Ball Mill)"
            }
        ],
        "RCL": [
            {
                "Key": "SZD",
                "Text": "SZD VZ (DoubleDeck,Flat, Rot.Force)"
            },
            {
                "Key": "SZG",
                "Text": "SZG VZ (SingleDeck,Flat, Rot.Force)"
            },
            {
                "Key": "SZR",
                "Text": "Grizzly, Rot.Force"
            },
            {
                "Key": "SZT",
                "Text": "SZT VZ (TripleDeck,Flat, Rot.Force)"
            }
        ],
        "RED": [
            {
                "Key": "CHC",
                "Text": "CHC (Chain Conveyor) - Bucket Elevator"
            },
            {
                "Key": "CHE",
                "Text": "CHE (Chain Elevator)"
            },
            {
                "Key": "MOV",
                "Text": "Movemaster"
            },
            {
                "Key": "ROC",
                "Text": "Rocon"
            }
        ],
        "RLC": [
            {
                "Key": "VAR",
                "Text": "Various"
            }
        ],
        "ROT": [
            {
                "Key": "CAC",
                "Text": "Calciner (Rotary)"
            },
            {
                "Key": "COL",
                "Text": "Cooler (Rotary)"
            },
            {
                "Key": "DRR",
                "Text": "Dryer (Rotary)"
            },
            {
                "Key": "KIL",
                "Text": "Kilns (Rotary)"
            }
        ],
        "RSC": [
            {
                "Key": "RSS",
                "Text": "Rotoscrew systems"
            }
        ],
        "RSS": [
            {
                "Key": "RRO",
                "Text": "Rotational"
            },
            {
                "Key": "RSB",
                "Text": "Belt "
            }
        ],
        "SCN": [
            {
                "Key": "SBE",
                "Text": "Sieve Bend"
            },
            {
                "Key": "STR",
                "Text": "Drum"
            }
        ],
        "SCX": [
            {
                "Key": "YAC",
                "Text": "PAC (Panels Accessories)"
            },
            {
                "Key": "YFA",
                "Text": "SFA  (Sideliner,Fix.Access.)"
            },
            {
                "Key": "YFX",
                "Text": "PFX  (Panels Fixing Systems)"
            },
            {
                "Key": "YMC",
                "Text": "PMC  (Panels Mats/Cloths)"
            },
            {
                "Key": "YRU",
                "Text": "PRU  (Panels Rubber)"
            },
            {
                "Key": "YSO",
                "Text": "SPO  (Sideliner,Polyurethane)"
            },
            {
                "Key": "YSP",
                "Text": "PPO  (Panels Polyurethane)"
            },
            {
                "Key": "YSS",
                "Text": "PSP  (Panels Perforated Plate)"
            },
            {
                "Key": "YSU",
                "Text": "SRU  (Sideliner,Rubber)"
            },
            {
                "Key": "YUD",
                "Text": "UDR  (Deck Rails)"
            },
            {
                "Key": "YUF",
                "Text": "UFK  (Subframe&Kits)"
            },
            {
                "Key": "YWI",
                "Text": "PWI  (Panels Wire)"
            }
        ],
        "SER": [
            {
                "Key": "VAR",
                "Text": "Various"
            }
        ],
        "SIQ": [
            {
                "Key": "RQA",
                "Text": "WB (Weighbeam)"
            },
            {
                "Key": "RQB",
                "Text": "WBR"
            },
            {
                "Key": "RQC",
                "Text": "WB round"
            },
            {
                "Key": "RQD",
                "Text": "WD (Weighdisc)"
            },
            {
                "Key": "RQE",
                "Text": "WDR (Weighdisc Radial)"
            },
            {
                "Key": "RQF",
                "Text": "WP"
            },
            {
                "Key": "RQG",
                "Text": "PWS (Platform Weighing Sensor)"
            },
            {
                "Key": "RQI",
                "Text": "RT"
            },
            {
                "Key": "RQJ",
                "Text": "VDW"
            },
            {
                "Key": "RQK",
                "Text": "VBB"
            },
            {
                "Key": "RQM",
                "Text": "WS"
            },
            {
                "Key": "RQN",
                "Text": "Weigh Rail"
            },
            {
                "Key": "RQO",
                "Text": "EM"
            },
            {
                "Key": "RQP",
                "Text": "FM"
            },
            {
                "Key": "RQQ",
                "Text": "SM"
            },
            {
                "Key": "RQR",
                "Text": "PM"
            }
        ],
        "SMA": [
            {
                "Key": "POF",
                "Text": "PO (Polyolefin)"
            },
            {
                "Key": "VAR",
                "Text": "Various (AMS)"
            }
        ],
        "SPI": [
            {
                "Key": "PMT",
                "Text": "SandPiper"
            }
        ],
        "SPL": [
            {
                "Key": "PSS",
                "Text": "PSS (HORSTHEMKE)"
            },
            {
                "Key": "WFB",
                "Text": "FB (Flat Bottom)"
            }
        ],
        "STO": [
            {
                "Key": "BFO",
                "Text": "FOV (Feeder Outlet)"
            },
            {
                "Key": "BIP",
                "Text": "FIP Feeder Inlet Pressurized"
            },
            {
                "Key": "BIV",
                "Text": "FIV (Feeder Inlet)"
            },
            {
                "Key": "BLV",
                "Text": "BLV (Burner Line)"
            },
            {
                "Key": "BPO",
                "Text": "FOP (Feeder Outlet Pressurized)"
            },
            {
                "Key": "BTV",
                "Text": "TWV Twin"
            },
            {
                "Key": "BVA",
                "Text": "BOV (Bunker Outlet)"
            },
            {
                "Key": "BVB",
                "Text": "BOP (Bunker Outlet Pressurized)"
            },
            {
                "Key": "VAR",
                "Text": "Various Stock"
            },
            {
                "Key": "CFE",
                "Text": "Compact Feeder"
            },
            {
                "Key": "HPG",
                "Text": "HPG (High Pressure Gravimetric)"
            },
            {
                "Key": "HPV",
                "Text": "HPV (High Pressure Volumetric)"
            },
            {
                "Key": "LPG",
                "Text": "LPG (Low Pressure Gravimetric)"
            },
            {
                "Key": "LPV",
                "Text": "LPV (Low Pressure Volumetric)"
            },
            {
                "Key": "MPG",
                "Text": "MPG (Medium Pressure Gravimetric)"
            },
            {
                "Key": "MPV",
                "Text": "MPV (Medium Pressure Volumetric)"
            }
        ],
        "VLK": [
            {
                "Key": "VAR",
                "Text": "Various"
            }
        ],
        "VLU": [
            {
                "Key": "CDI",
                "Text": "Couplings/Hoppers/Downspouts"
            },
            {
                "Key": "MXS",
                "Text": "MaxiStore"
            },
            {
                "Key": "PBU",
                "Text": "PortBulk"
            }
        ],
        "VTM": [
            {
                "Key": "VAR",
                "Text": "Various"
            }
        ],
        "WVI": [
            {
                "Key": "SDF",
                "Text": "SDF DF (LinaFeed)"
            },
            {
                "Key": "SF2",
                "Text": "SolidsFlow 2000"
            },
            {
                "Key": "SF7",
                "Text": "SolidsFlow 7000"
            },
            {
                "Key": "SLP",
                "Text": "SLP DF (LinaFeed) "
            },
            {
                "Key": "SPA",
                "Text": "SPA VM (LinaFeed) "
            },
            {
                "Key": "SPC",
                "Text": "SPC VM (LinaFeed) "
            },
            {
                "Key": "VEM",
                "Text": "EM (LinaFeed)"
            }
        ],
        "XEA": [
            {
                "Key": "XDF",
                "Text": "DF (Directional Force)"
            },
            {
                "Key": "XMF",
                "Text": "MF (Magnetic Force Exciter)"
            },
            {
                "Key": "XVA",
                "Text": "VA (Rotary Force Cell)"
            },
            {
                "Key": "XVM",
                "Text": "VM (Vibrating Motor Exciter)"
            },
            {
                "Key": "XVZ",
                "Text": "VZ (Rotary Force Cell)"
            }
        ],
        "XOE": [
            {
                "Key": "VAR",
                "Text": "Various"
            }
        ],
        "XOM": [
            {
                "Key": "VAR",
                "Text": "Various"
            }
        ],
        "YFE": [
            {
                "Key": "YSC",
                "Text": "Scrapers Polyurethane"
            }
        ],
        "YFM": [
            {
                "Key": "YCN",
                "Text": "Cyclone Nozzles_Pneumatic"
            },
            {
                "Key": "YFC",
                "Text": "Filter Cages"
            }
        ],
        "YGM": [
            {
                "Key": "YML",
                "Text": "Mill Liners_Rubber"
            }
        ],
        "ZOG": [
            {
                "Key": "ZIA",
                "Text": "Fitness Check"
            },
            {
                "Key": "ZIB",
                "Text": "Verification / Legal-for-Trade Service"
            },
            {
                "Key": "ZIC",
                "Text": "Verification by OEM - Schenck Process"
            },
            {
                "Key": "ZRA",
                "Text": "Site Maintenance Work"
            },
            {
                "Key": "ZRB",
                "Text": "Exchange Program"
            },
            {
                "Key": "ZRC",
                "Text": "Repair Program"
            },
            {
                "Key": "ZRD",
                "Text": "Refurbishment Program"
            },
            {
                "Key": "ZRE",
                "Text": "Remote Service / Telemaintenance"
            },
            {
                "Key": "ZSG",
                "Text": "Engineering and Documentation Services"
            },
            {
                "Key": "ZSS",
                "Text": "Material Tests for Customer"
            }
        ]
    }
}