{
    "unitOfWeightCollection": [
        {
            "Key": "G",
            "Text": "Gram"
        },
        {
            "Key": "KG",
            "Text": "Kilogram"
        },
        {
            "Key": "KT",
            "Text": "Kiloton"
        },
        {
            "Key": "LB",
            "Text": "Pound"
        },
        {
            "Key": "MG",
            "Text": "Milligram"
        }
    ]
}